[gd_scene load_steps=7 format=2]

[ext_resource path="res://components/counter/static/static_counter.gd" type="Script" id=1]
[ext_resource path="res://assets/appliances/metaltop.png" type="Texture" id=2]
[ext_resource path="res://assets/appliances/metalfront.png" type="Texture" id=3]
[ext_resource path="res://components/selection/selection.tscn" type="PackedScene" id=4]

[sub_resource type="RectangleShape2D" id=1]
extents = Vector2( 24, 24 )

[sub_resource type="RectangleShape2D" id=2]
extents = Vector2( 24, 24 )

[node name="Counter_metal_bottom" type="StaticBody2D"]
collision_mask = 2
script = ExtResource( 1 )

[node name="Working Area" type="Sprite" parent="."]
position = Vector2( 24, 24 )
scale = Vector2( 1, -1 )
texture = ExtResource( 2 )

[node name="Body" type="Sprite" parent="."]
position = Vector2( 24, 24 )
texture = ExtResource( 3 )
offset = Vector2( 0, 48 )

[node name="ActivationArea" type="Area2D" parent="."]
position = Vector2( 0, -48 )
collision_mask = 2

[node name="CollisionShape2D" type="CollisionShape2D" parent="ActivationArea"]
position = Vector2( 24, 24 )
shape = SubResource( 1 )

[node name="CollisionShape2D" type="CollisionShape2D" parent="."]
position = Vector2( 24, 24 )
shape = SubResource( 2 )

[node name="Selection" parent="." instance=ExtResource( 4 )]
position = Vector2( 24, 24 )
