[gd_scene load_steps=4 format=2]

[ext_resource path="res://assets/appliances/conveyerbelow.png" type="Texture" id=1]
[ext_resource path="res://assets/appliances/conveyer_corner.png" type="Texture" id=2]




[sub_resource type="RectangleShape2D" id=2]
extents = Vector2( 24, 24 )

[node name="Conveyor_corner_left_down" type="StaticBody2D"]
collision_mask = 2

[node name="Working Area" type="Sprite" parent="."]
position = Vector2( 24, 24 )
rotation = 4.71239
scale = Vector2( -1, 1 )
texture = ExtResource( 2 )

[node name="Body" type="Sprite" parent="."]
position = Vector2( 24, 24 )
texture = ExtResource( 1 )
offset = Vector2( 0, 48 )

[node name="CollisionShape2D" type="CollisionShape2D" parent="."]
position = Vector2( 24, 24 )
shape = SubResource( 2 )
