[gd_scene load_steps=5 format=2]

[ext_resource path="res://components/player/player.gd" type="Script" id=1]
[ext_resource path="res://assets/player/front.png" type="Texture" id=2]

[sub_resource type="RectangleShape2D" id=1]
extents = Vector2( 20.3654, 16.0246 )

[sub_resource type="RectangleShape2D" id=2]
extents = Vector2( 0.5, 0.5 )

[node name="Player" type="KinematicBody2D"]
collision_layer = 2
script = ExtResource( 1 )

[node name="BackAnchor" type="Position2D" parent="."]
position = Vector2( 4, 15 )
z_as_relative = false

[node name="LeftAnchor" type="Position2D" parent="."]
position = Vector2( -46, -1 )
rotation = 3.14159
scale = Vector2( 1, -1 )
z_index = 2
z_as_relative = false

[node name="RightAnchor" type="Position2D" parent="."]
position = Vector2( 43, -1 )
z_index = 2
z_as_relative = false

[node name="Sprite" type="Sprite" parent="."]
texture = ExtResource( 2 )

[node name="FrontAnchor" type="Position2D" parent="."]
position = Vector2( 0, 15 )
z_index = 2
z_as_relative = false

[node name="CollisionShape2D" type="CollisionShape2D" parent="."]
position = Vector2( 0, 16 )
rotation = 1.5708
shape = SubResource( 1 )

[node name="ActivatorArea" type="Area2D" parent="."]
collision_layer = 2

[node name="CollisionShape2D" type="CollisionShape2D" parent="ActivatorArea"]
position = Vector2( 0.5, 16 )
shape = SubResource( 2 )
